[{
    "settings": ["master"],
    "public feed": {
        "verbs": ["get"],
        "path": "/",
        "call": "flickr.index"
    },

    "user feed": {
        "verbs": ["get"],
        "path": "/user/:id",
        "call": "flickr.user"
    },

    "user friends feed": {
        "verbs": ["get"],
        "path": "/user/:id/friends",
        "call": "flickr.friends"
    }
}]
